1.4 Example 2: The gutenbergr package | Text Mining with R Book Club
…
Check out the Problem with use of gutenberg_download function

library("gutenbergr")

hgwells <- gutenberg_download(c(35, 36, 5230, 159), mirror = "http://mirrors.xmission.com/gutenberg/")
tidy_hgwells <- hgwells %>%
  unnest_tokens(word, text) %>%
  anti_join(stop_words)

## Joining, by = "word"

tidy_hgwells %>%
  count(word, sort = TRUE)

## # A tibble: 11,811 × 2
##    word       n
##    <chr>  <int>
##  1 time     461
##  2 people   302
##  3 door     260
##  4 heard    249
##  5 black    232
##  6 stood    229
##  7 white    224
##  8 hand     218
##  9 kemp     213
## 10 eyes     210
## # … with 11,801 more rows

bronte <- gutenberg_download(c(1260, 768, 969, 9182, 767), mirror = "http://mirrors.xmission.com/gutenberg/")
tidy_bronte <- bronte %>%
  unnest_tokens(word, text) %>%
  anti_join(stop_words)

## Joining, by = "word"

tidy_bronte %>%
  count(word, sort = TRUE)

## # A tibble: 23,303 × 2
##    word       n
##    <chr>  <int>
##  1 time    1064
##  2 miss     854
##  3 day      826
##  4 hand     767
##  5 eyes     713
##  6 don’t    666
##  7 night    648
##  8 heart    638
##  9 looked   601
## 10 door     591
## # … with 23,293 more rows
…
frequency <- bind_rows(mutate(tidy_bronte, author = "Brontë Sisters"),
                       mutate(tidy_hgwells, author = "H.G. Wells"), 
                       mutate(tidy_books, author = "Jane Austen")) %>% 
  mutate(word = str_extract(word, "[a-z']+")) %>%
  count(author, word) %>%
  group_by(author) %>%
  mutate(proportion = n / sum(n)) %>% 
  dplyr::select(-n) %>% 
  pivot_wider(names_from = author, values_from = proportion) %>%
  pivot_longer(`Brontë Sisters`:`H.G. Wells`,
               names_to = "author", values_to = "proportion")

frequency

## # A tibble: 57,128 × 4
##    word      `Jane Austen` author          proportion
##    <chr>             <dbl> <chr>                <dbl>
##  1 a            0.00000919 Brontë Sisters  0.0000587 
##  2 a            0.00000919 H.G. Wells      0.0000147 
##  3 aback       NA          Brontë Sisters  0.00000391
##  4 aback       NA          H.G. Wells      0.0000147 
##  5 abaht       NA          Brontë Sisters  0.00000391
##  6 abaht       NA          H.G. Wells     NA         
##  7 abandon     NA          Brontë Sisters  0.0000313 
##  8 abandon     NA          H.G. Wells      0.0000147 
##  9 abandoned    0.00000460 Brontë Sisters  0.0000900 
## 10 abandoned    0.00000460 H.G. Wells      0.000177  
## # … with 57,118 more rows
…
