4.2 Tokeninzing by n-grams | Text Mining with R Book Club
…
This output clearly needs to be filtered

covid_bigrams %>%
  count(bigram, sort = TRUE)

## # A tibble: 474,761 × 2
##    bigram                n
##    <chr>             <int>
##  1 https t.co        23953
##  2 covid 19          11687
##  3 grocery store      4775
##  4 to the             3873
##  5 in the             3639
##  6 of the             3046
##  7 the coronavirus    2174
##  8 the grocery        2138
##  9 the supermarket    1890
## 10 coronavirus https  1825
## # … with 474,751 more rows
…
# new bigram counts:
bigram_counts <- bigrams_filtered %>% 
  count(word1, word2, sort = TRUE)
# n = 216,367

Clearly there are a lot of people posting links on Twitter (t.co) because of the shortened URLs.

Now that we’ve filtered out the stopwords, let’s unite the words to create more true bigrams (no stopwords) again.

bigrams_united <- bigrams_filtered %>%
  unite(bigram, word1, word2, sep = " ")

bigrams_united

## # A tibble: 393,315 × 2
##    Sentiment bigram             
##    <chr>     <chr>              
##  1 Neutral   menyrbie phil_gahan
##  2 Neutral   phil_gahan chrisitv
##  3 Neutral   chrisitv https     
##  4 Neutral   https t.co         
##  5 Neutral   t.co ifz9fan2pa    
##  6 Neutral   https t.co         
##  7 Neutral   t.co xx6ghgfzcc    
##  8 Neutral   https t.co         
##  9 Neutral   t.co i2nlzdxno8    
## 10 Positive  advice talk        
## # … with 393,305 more rows

IF we were interested in trigrams, we can repeat the sequence with n=3

covid_tweets %>%
  select(OriginalTweet, Sentiment) %>% 
  unnest_tokens(trigram, OriginalTweet, token = "ngrams", n = 3) %>%
  separate(trigram, c("word1", "word2", "word3"), sep = " ") %>%
  filter(!word1 %in% stop_words$word,
         !word2 %in% stop_words$word,
         !word3 %in% stop_words$word) %>%
  count(word1, word2, word3, sort = TRUE)

## # A tibble: 187,821 × 4
##    word1       word2 word3        n
##    <chr>       <chr> <chr>    <int>
##  1 coronavirus https t.co      1822
##  2 covid       19    pandemic   917
##  3 covid19     https t.co       551
##  4 19          https t.co       512
##  5 covid       19    https      508
##  6 grocery     store workers    432
##  7 covid       19    outbreak   386
##  8 covid       19    crisis     385
##  9 covid_19    https t.co       365
## 10 pandemic    https t.co       363
## # … with 187,811 more rows

4.2.1 Analyzing bigrams

This dataset does not really give us a grouping variable like the Austen data but they do include sentiment. Let’s try grouping by sentiments the curators have determined the tweets to be to get the which words are most associated with “shopping”.

bigrams_filtered %>%
  filter(word2 == "shopping") %>%
  count(Sentiment, word1, sort = TRUE)

## # A tibble: 571 × 3
##    Sentiment          word1       n
##    <chr>              <chr>   <int>
##  1 Positive           online    398
##  2 Neutral            online    305
##  3 Negative           online    298
##  4 Extremely Positive online    249
##  5 Positive           grocery   121
##  6 Extremely Negative online    102
##  7 Neutral            grocery    79
##  8 Negative           grocery    56
##  9 Extremely Positive grocery    44
## 10 Negative           panic      39
## # … with 561 more rows

Bigrams can be used treated like documents. We can look at the tf-idf and visualize based on sentiment.

bigram_tf_idf <- bigrams_united %>%
  count(Sentiment, bigram) %>%
  bind_tf_idf(bigram, Sentiment, n) %>%
  arrange(desc(tf_idf))

bigram_tf_idf

## # A tibble: 252,318 × 6
##    Sentiment          bigram                     n       tf   idf   tf_idf
##    <chr>              <chr>                  <int>    <dbl> <dbl>    <dbl>
##  1 Extremely Negative price war                 57 0.00106  0.511 0.000539
##  2 Extremely Negative stop panic               110 0.00204  0.223 0.000455
##  3 Extremely Positive strong amp                17 0.000255 1.61  0.000411
##  4 Extremely Negative terroristic threats       13 0.000241 1.61  0.000387
##  5 Extremely Positive experiencing hardships    14 0.000210 1.61  0.000338
##  6 Extremely Negative walmart trader            19 0.000352 0.916 0.000322
##  7 Extremely Negative food shortages            34 0.000630 0.511 0.000322
##  8 Extremely Negative break eggs                10 0.000185 1.61  0.000298
##  9 Extremely Negative milk break                10 0.000185 1.61  0.000298
## 10 Extremely Positive friends safe              12 0.000180 1.61  0.000290
## # … with 252,308 more rows
…
Takeaway- bigrams are informative and can make tokens more understandable they do make the counts more sparse (a two-word pair is more rare). These can be useful in very large datasets

4.2.2 Using bigrams to provide context in sentiment analysis

This dataset already contains sentiment of the overall tweet but as we saw in the tf-idf visual, they don’t really make much sense in context of just the bigram. So, let’s re-do it. This could make a difference given the context, such as the usage of “not” before “happy”.

bigrams_separated %>%
  filter(word1 == "not") %>%
  count(word1, word2, sort = TRUE)

## # A tibble: 1,135 × 3
##    word1 word2     n
##    <chr> <chr> <int>
##  1 not   to      220
##  2 not   a       181
##  3 not   be      177
##  4 not   the     149
##  5 not   only    111
##  6 not   going    86
##  7 not   just     86
##  8 not   have     73
##  9 not   panic    70
## 10 not   sure     69
## # … with 1,125 more rows
…
